voter.vcd
$date
	Fri Apr 15 14:42:07 2022
$end
$version
	Icarus Verilog
$end
$timescale
	1s
$end
$scope module voter_tb $end
$scope module v_tb $end
$var wire 4 ! I [3:0] $end
$var reg 3 " O [3:1] $end
$upscope $end
$upscope $end
$enddefinitions $end
#0
$dumpvars
bx "
bx !
$end
#10
b1 "
b0 !
#20
b1 !
#30
b10 !
#40
b10 "
b11 !
#50
b1 "
b100 !
#60
b10 "
b101 !
#70
b110 !
#80
b100 "
b111 !
#90
b1 "
b1000 !
#100
b10 "
b1001 !
#110
b1010 !
#120
b100 "
b1011 !
#130
b10 "
b1100 !
#140
b100 "
b1101 !
#150
b1110 !
#160
b1111 !
